…
## Problem 2

``` r
mr_trash_wheel_df = 
   read_excel("data/Trash Wheel Collection Data.xlsx", sheet = "Mr. Trash Wheel", range = "A2:N586")|>
  janitor::clean_names()|>
  mutate(
    date = substr(date, nchar(date) - 1, nchar(date)))|>
  mutate(
    homes_powered = (weight_tons*500/30))|>
  mutate(trash_wheel_name = "Mr_trash_wheel")
mr_trash_wheel_df
```

    ## # A tibble: 584 × 15
    ##    dumpster month year  date  weight_tons volume_cubic_yards plastic_bottles
    ##       <dbl> <chr> <chr> <chr>       <dbl>              <dbl>           <dbl>
    ##  1        1 May   2014  16           4.31                 18            1450
    ##  2        2 May   2014  16           2.74                 13            1120
    ##  3        3 May   2014  16           3.45                 15            2450
    ##  4        4 May   2014  17           3.1                  15            2380
    ##  5        5 May   2014  17           4.06                 18             980
    ##  6        6 May   2014  20           2.71                 13            1430
    ##  7        7 May   2014  21           1.91                  8             910
    ##  8        8 May   2014  28           3.7                  16            3580
    ##  9        9 June  2014  05           2.52                 14            2400
    ## 10       10 June  2014  11           3.76                 18            1340
    ## # ℹ 574 more rows
    ## # ℹ 8 more variables: polystyrene <dbl>, cigarette_butts <dbl>,
    ## #   glass_bottles <dbl>, plastic_bags <dbl>, wrappers <dbl>,
    ## #   sports_balls <dbl>, homes_powered <dbl>, trash_wheel_name <chr>

``` r
professor_trash_wheel_df = 
  read_excel("data/Trash Wheel Collection Data.xlsx", sheet = "Professor Trash Wheel", range = "A2:M108")|>
  janitor::clean_names()|>
  mutate(
    date = substr(date, nchar(date) - 1, nchar(date)))|>
  mutate(
    homes_powered = (weight_tons*500/30), 
    year = as.character(year))|>
  mutate(trash_wheel_name = "Professor_trash_wheel")
professor_trash_wheel_df
```

    ## # A tibble: 106 × 14
    ##    dumpster month    year  date  weight_tons volume_cubic_yards plastic_bottles
    ##       <dbl> <chr>    <chr> <chr>       <dbl>              <dbl>           <dbl>
    ##  1        1 January  2017  02           1.79                 15            1950
    ##  2        2 January  2017  30           1.58                 15            9540
    ##  3        3 February 2017  26           2.32                 18            8350
    ##  4        4 February 2017  26           3.72                 15            8590
    ##  5        5 February 2017  28           1.45                 15            7830
    ##  6        6 March    2017  30           1.71                 15            8210
    ##  7        7 April    2017  01           1.82                 15            9830
    ##  8        8 April    2017  20           2.37                 15            9240
    ##  9        9 May      2017  10           2.64                 15            9540
    ## 10       10 May      2017  26           2.78                 15            8230
    ## # ℹ 96 more rows
    ## # ℹ 7 more variables: polystyrene <dbl>, cigarette_butts <dbl>,
    ## #   glass_bottles <dbl>, plastic_bags <dbl>, wrappers <dbl>,
    ## #   homes_powered <dbl>, trash_wheel_name <chr>
…
gwynnda_trash_wheel_df = 
  read_excel("data/Trash Wheel Collection Data.xlsx", sheet = "Gwynnda Trash Wheel", range = "A2:L157")|>
  janitor::clean_names()|>
  mutate(
    date = substr(date, nchar(date) - 1, nchar(date))
  )|>
  mutate(
    homes_powered = (weight_tons*500/30),
    year = as.character(year)
  )|>
  mutate(trash_wheel_name = "Gwynnda_trash_wheel")
gwynnda_trash_wheel_df
```

    ## # A tibble: 155 × 13
    ##    dumpster month  year  date  weight_tons volume_cubic_yards plastic_bottles
    ##       <dbl> <chr>  <chr> <chr>       <dbl>              <dbl>           <dbl>
    ##  1        1 July   2021  03           0.93                 15            1200
    ##  2        2 July   2021  07           2.26                 15            2000
    ##  3        3 July   2021  07           1.62                 15            1800
    ##  4        4 July   2021  16           1.76                 15            1000
    ##  5        5 July   2021  30           1.53                 15            2100
    ##  6        6 August 2021  11           2.06                 15            2400
    ##  7        7 August 2021  14           1.9                  15            2700
    ##  8        8 August 2021  16           2.16                 15            3000
    ##  9        9 August 2021  16           2.6                  15             980
    ## 10       10 August 2021  17           3.21                 15             240
    ## # ℹ 145 more rows
    ## # ℹ 6 more variables: polystyrene <dbl>, cigarette_butts <dbl>,
    ## #   plastic_bags <dbl>, wrappers <dbl>, homes_powered <dbl>,
    ## #   trash_wheel_name <chr>

``` r
trash_wheel_combind_df=
  bind_rows(mr_trash_wheel_df,professor_trash_wheel_df,gwynnda_trash_wheel_df) |>
  janitor::clean_names()

trash_wheel_combind_df
```

    ## # A tibble: 845 × 15
    ##    dumpster month year  date  weight_tons volume_cubic_yards plastic_bottles
    ##       <dbl> <chr> <chr> <chr>       <dbl>              <dbl>           <dbl>
    ##  1        1 May   2014  16           4.31                 18            1450
    ##  2        2 May   2014  16           2.74                 13            1120
    ##  3        3 May   2014  16           3.45                 15            2450
    ##  4        4 May   2014  17           3.1                  15            2380
    ##  5        5 May   2014  17           4.06                 18             980
    ##  6        6 May   2014  20           2.71                 13            1430
    ##  7        7 May   2014  21           1.91                  8             910
    ##  8        8 May   2014  28           3.7                  16            3580
    ##  9        9 June  2014  05           2.52                 14            2400
    ## 10       10 June  2014  11           3.76                 18            1340
    ## # ℹ 835 more rows
    ## # ℹ 8 more variables: polystyrene <dbl>, cigarette_butts <dbl>,
    ## #   glass_bottles <dbl>, plastic_bags <dbl>, wrappers <dbl>,
    ## #   sports_balls <dbl>, homes_powered <dbl>, trash_wheel_name <chr>
…
